Dr. Liam D. Bailey
…
Let’s get started on our Olympic investigation. The first thing to note is that we have data on all athletes, even those that did not win a medal. We also have data on each individual athlete within a team sport (e.g. basketball). This is super interesting data, but if we want to know the best performing countries, we’ll need to adapt this data a bit to show national medal tallies.

## Load data
athletes <- readr::read_csv("./data/athlete_events.csv", show_col_type = FALSE)

athletes

# A tibble: 271,116 × 15
      ID Name     Sex     Age Height Weight Team  NOC   Games  Year Season City 
   <dbl> <chr>    <chr> <dbl>  <dbl>  <dbl> <chr> <chr> <chr> <dbl> <chr>  <chr>
 1     1 A Dijia… M        24    180     80 China CHN   1992…  1992 Summer Barc…
 2     2 A Lamusi M        23    170     60 China CHN   2012…  2012 Summer Lond…
 3     3 Gunnar … M        24     NA     NA Denm… DEN   1920…  1920 Summer Antw…
 4     4 Edgar L… M        34     NA     NA Denm… DEN   1900…  1900 Summer Paris
 5     5 Christi… F        21    185     82 Neth… NED   1988…  1988 Winter Calg…
 6     5 Christi… F        21    185     82 Neth… NED   1988…  1988 Winter Calg…
 7     5 Christi… F        25    185     82 Neth… NED   1992…  1992 Winter Albe…
 8     5 Christi… F        25    185     82 Neth… NED   1992…  1992 Winter Albe…
 9     5 Christi… F        27    185     82 Neth… NED   1994…  1994 Winter Lill…
10     5 Christi… F        27    185     82 Neth… NED   1994…  1994 Winter Lill…
# ℹ 271,106 more rows
# ℹ 3 more variables: Sport <chr>, Event <chr>, Medal <chr>
…
medals_long <- athletes_clean |> 
  ## Count the number of each medal won by each country at each olympics
  group_by(Year, Season, ISO3c, Medal) |> 
  summarise(n = n(),
            country = first(Team),
            .groups = "drop")

medals_long

# A tibble: 4,691 × 6
    Year Season ISO3c Medal      n country    
   <dbl> <chr>  <chr> <chr>  <int> <chr>      
 1  1948 Summer AFG   None       2 Afghanistan
 2  1948 Summer ARG   Bronze     1 Argentina  
 3  1948 Summer ARG   Gold       3 Argentina  
 4  1948 Summer ARG   None      96 Argentina  
 5  1948 Summer ARG   Silver     3 Argentina  
 6  1948 Summer AUS   Bronze     5 Australia  
 7  1948 Summer AUS   Gold       2 Australia  
 8  1948 Summer AUS   None      43 Australia  
 9  1948 Summer AUS   Silver     6 Australia  
10  1948 Summer AUT   Bronze     4 Austria    
# ℹ 4,681 more rows
…
medals_wide

# A tibble: 2,463 × 8
    Year Season ISO3c country        Gold Silver Bronze total_medals
   <dbl> <chr>  <chr> <chr>         <int>  <int>  <int>        <int>
 1  2016 Summer USA   United States    46     37     38          121
 2  2016 Summer GBR   Great Britain    27     23     17           67
 3  2016 Summer CHN   China            26     18     26           70
 4  2016 Summer RUS   Russia           19     17     20           56
 5  2016 Summer DEU   Germany          17     10     15           42
 6  2016 Summer JPN   Japan            12      8     21           41
 7  2016 Summer FRA   France           10     18     14           42
 8  2016 Summer KOR   South Korea       9      3      9           21
 9  2016 Summer ITA   Italy             8     12      8           28
10  2016 Summer AUS   Australia         8     11     10           29
# ℹ 2,453 more rows
…
## Also join in data on % on total medals won
total_prop <- medals_wide |> 
  left_join(number_medals |> 
              group_by(Year) |> 
              summarise(total = sum(n_medals)), by = "Year") |> 
  mutate(perc_Total = (total_medals/total)*100) |> 
  select(Year, ISO3c, perc_Total)

medals_wide_prop <- medals_wide_prop |> 
  left_join(total_prop, by = c("Year", "ISO3c"))

medals_wide_prop

# A tibble: 2,463 × 8
    Year Season ISO3c country       perc_Gold perc_Silver perc_Bronze perc_Total
   <dbl> <chr>  <chr> <chr>             <dbl>       <dbl>       <dbl>      <dbl>
 1  2016 Summer USA   United States     15.0       12.1         10.6       12.4 
 2  2016 Summer GBR   Great Britain      8.79       7.52         4.72       6.89
 3  2016 Summer CHN   China              8.47       5.88         7.22       7.19
 4  2016 Summer RUS   Russia             6.19       5.56         5.56       5.76
 5  2016 Summer DEU   Germany            5.54       3.27         4.17       4.32
 6  2016 Summer JPN   Japan              3.91       2.61         5.83       4.21
 7  2016 Summer FRA   France             3.26       5.88         3.89       4.32
 8  2016 Summer KOR   South Korea        2.93       0.980        2.5        2.16
 9  2016 Summer ITA   Italy              2.61       3.92         2.22       2.88
10  2016 Summer AUS   Australia          2.61       3.59         2.78       2.98
# ℹ 2,453 more rows
…
medals_gdp <- medals_wide_prop |>
  ## Join in GDP data
  left_join(GDP, by = c("ISO3c" = "country_code", "Year" = "year")) |> 
  ## Calculate medal % per billion$ GDP
  mutate(gdp_bil = gdp/1e9,
         perc_Gold_gdp = perc_Gold/gdp_bil,
         perc_Silver_gdp = perc_Silver/gdp_bil,
         perc_Bronze_gdp = perc_Bronze/gdp_bil) |> 
  select(Year, Season, ISO3c, country, perc_Gold_gdp:perc_Bronze_gdp, everything())

medals_gdp

# A tibble: 2,463 × 14
    Year Season ISO3c country      perc_Gold_gdp perc_Silver_gdp perc_Bronze_gdp
   <dbl> <chr>  <chr> <chr>                <dbl>           <dbl>           <dbl>
 1  2016 Summer USA   United Stat…      0.000797        0.000643        0.000561
 2  2016 Summer GBR   Great Brita…      0.00327         0.00280         0.00176 
 3  2016 Summer CHN   China             0.000754        0.000524        0.000643
 4  2016 Summer RUS   Russia            0.00485         0.00435         0.00435 
 5  2016 Summer DEU   Germany           0.00160         0.000942        0.00120 
 6  2016 Summer JPN   Japan             0.000781        0.000522        0.00117 
 7  2016 Summer FRA   France            0.00132         0.00238         0.00157 
 8  2016 Summer KOR   South Korea       0.00195         0.000654        0.00167 
 9  2016 Summer ITA   Italy             0.00139         0.00209         0.00118 
10  2016 Summer AUS   Australia         0.00216         0.00298         0.00230 
# ℹ 2,453 more rows
# ℹ 7 more variables: perc_Gold <dbl>, perc_Silver <dbl>, perc_Bronze <dbl>,
#   perc_Total <dbl>, indicator_name <chr>, gdp <dbl>, gdp_bil <dbl>
…
