Dr. Liam D. Bailey
…
First, let’s read in the data we finished with last time and the new data from Paris.

## Load data
(historical_data <- readr::read_csv("./data/training_data.csv", show_col_type = FALSE))

# A tibble: 2,463 × 6
    Year ISO3c country       perc_Gold perc_Silver perc_Bronze
   <dbl> <chr> <chr>             <dbl>       <dbl>       <dbl>
 1  2016 USA   United States     15.0       12.1         10.6 
 2  2016 GBR   Great Britain      8.79       7.52         4.72
 3  2016 CHN   China              8.47       5.88         7.22
 4  2016 RUS   Russia             6.19       5.56         5.56
 5  2016 DEU   Germany            5.54       3.27         4.17
 6  2016 JPN   Japan              3.91       2.61         5.83
 7  2016 FRA   France             3.26       5.88         3.89
 8  2016 KOR   South Korea        2.93       0.980        2.5 
 9  2016 ITA   Italy              2.61       3.92         2.22
10  2016 AUS   Australia          2.61       3.59         2.78
# ℹ 2,453 more rows

paris <- readr::read_csv("./data/paris_results.csv", show_col_types = FALSE) |> 
  mutate(across(Gold:Total, \(x) tidyr::replace_na(x, 0)),
         ISO3c_countrycode = countrycode::countrycode(NOC, origin = "ioc", destination = "iso3c"),
         ISO3c = case_when(!is.na(ISO3c_countrycode) ~ ISO3c_countrycode,
                           NOC == "KOS" ~ "XKX",
                           NOC == "SIN" ~ "SGP",
                           is.na(ISO3c_countrycode) ~ NOC),
         country = countrycode::countrycode(ISO3c, origin = "iso3c", destination = "country.name")) |> 
  select(country, ISO3c, Gold:Total)

paris

# A tibble: 92 × 6
   country        ISO3c  Gold Silver Bronze Total
   <chr>          <chr> <dbl>  <dbl>  <dbl> <dbl>
 1 United States  USA      40     44     42   126
 2 China          CHN      40     27     24    91
 3 Japan          JPN      20     12     13    45
 4 Australia      AUS      18     19     16    53
 5 France         FRA      16     26     22    64
 6 Netherlands    NLD      15      7     12    34
 7 United Kingdom GBR      14     22     29    65
 8 South Korea    KOR      13      9     10    32
 9 Italy          ITA      12     13     15    40
10 Germany        DEU      12     13      8    33
# ℹ 82 more rows
…
total_gold <- sum(paris$Gold)
total_silver <- sum(paris$Silver)
total_bronze <- sum(paris$Bronze)
total <- sum(paris$Total)

paris_perc <- paris |> 
  mutate(perc_Gold = (Gold/total_gold)*100,
         perc_Silver = (Silver/total_silver)*100,
         perc_Bronze = (Bronze/total_bronze)*100,
         perc_Total = (Total/total)*100) |> 
  select(country, ISO3c, perc_Gold:perc_Total)

paris_perc

# A tibble: 92 × 6
   country        ISO3c perc_Gold perc_Silver perc_Bronze perc_Total
   <chr>          <chr>     <dbl>       <dbl>       <dbl>      <dbl>
 1 United States  USA       12.2        13.3        10.9       12.1 
 2 China          CHN       12.2         8.18        6.23       8.72
 3 Japan          JPN        6.08        3.64        3.38       4.31
 4 Australia      AUS        5.47        5.76        4.16       5.08
 5 France         FRA        4.86        7.88        5.71       6.13
 6 Netherlands    NLD        4.56        2.12        3.12       3.26
 7 United Kingdom GBR        4.26        6.67        7.53       6.23
 8 South Korea    KOR        3.95        2.73        2.60       3.07
 9 Italy          ITA        3.65        3.94        3.90       3.83
10 Germany        DEU        3.65        3.94        2.08       3.16
# ℹ 82 more rows
…
paris_predicted <- paris_perc_gdp
paris_predicted$exp_score <- as.numeric(predict(model, newdata = paris_predicted, re.form = NA))

paris_predicted <- paris_predicted |> 
  ## Calculate absolute and relative difference between expected and actual score
  mutate(score_diff_abs = score - exp_score,
         score_diff_rel = score/exp_score)

paris_predicted |> 
  select(country, gdp_bil, score, exp_score)

# A tibble: 88 × 4
   country        gdp_bil score exp_score
   <chr>            <dbl> <dbl>     <dbl>
 1 United States    25700 12.3      26.1 
 2 China            17900 10.8      18.3 
 3 Japan             4260  5.31      4.53
 4 Australia         1690  5.44      1.95
 5 France            2780  5.62      3.04
 6 Netherlands       1010  3.89      1.26
 7 United Kingdom    3090  5.06      3.36
 8 South Korea       1670  3.56      1.93
 9 Italy             2070  3.73      2.33
10 Germany           4080  3.59      4.35
# ℹ 78 more rows
…
